<svg xmlns="http://www.w3.org/2000/svg" width="7.689" height="12.588" viewBox="0 0 7.689 12.588">
  <path id="Path_1" data-name="Path 1" d="M-149.478,84.441-144.07,90l5.769-5.559" transform="translate(-83.721 -137.607) rotate(-90)" fill="none" stroke="#000" stroke-width="2"/>
</svg>
