<svg xmlns="http://www.w3.org/2000/svg" width="14" height="10" viewBox="0 0 14 10">
  <path id="email" d="M15,6H3A1,1,0,0,0,2,7v8a1,1,0,0,0,1,1H15a1,1,0,0,0,1-1V7A1,1,0,0,0,15,6ZM13.9,7,9,10.39,4.1,7ZM3,15V7.455L8.715,11.41a.5.5,0,0,0,.57,0L15,7.455V15Z" transform="translate(-2 -6)" fill="#fff"/>
</svg>
