<svg xmlns="http://www.w3.org/2000/svg" width="14" height="14" viewBox="0 0 14 14">
  <g id="chat-bot" transform="translate(-2 -2)">
    <path id="Path_6392" data-name="Path 6392" d="M16,19" transform="translate(-7 -8.5)" fill="#fff"/>
    <path id="Path_6393" data-name="Path 6393" d="M9.868,16,9,15.5,11,12h3a1,1,0,0,0,1-1V4a1,1,0,0,0-1-1H4A1,1,0,0,0,3,4v7a1,1,0,0,0,1,1H8.5v1H4a2,2,0,0,1-2-2V4A2,2,0,0,1,4,2H14a2,2,0,0,1,2,2v7a2,2,0,0,1-2,2H11.582Z" transform="translate(0)" fill="#fff"/>
  </g>
</svg>
