<?xml version="1.0" encoding="UTF-8"?>
<svg width="25px" height="24px" viewBox="0 0 25 24" version="1.1" xmlns="http://www.w3.org/2000/svg" xmlns:xlink="http://www.w3.org/1999/xlink">
    <!-- Generator: Sketch 53.2 (72643) - https://sketchapp.com -->
    <title>Request a Quote  Selected</title>
    <desc>Created with Sketch.</desc>
    <g id="Web" stroke="none" stroke-width="1" fill="none" fill-rule="evenodd">
        <g id="Request-a-Quote--Selected" transform="translate(0.000000, 0.021836)" fill="#016799" fill-rule="nonzero">
            <path d="M15.8264887,12.6180698 C15.8264887,12.2433265 15.5184805,11.9301848 15.1386037,11.9301848 L3.58829569,11.9301848 C3.21355236,11.9301848 2.90041068,12.238193 2.90041068,12.6180698 C2.90041068,12.9979466 3.20841889,13.3059548 3.58829569,13.3059548 L15.1437372,13.3059548 C15.5184805,13.3059548 15.8264887,12.9979466 15.8264887,12.6180698 Z" id="Path"></path>
            <path d="M15.2002053,9.1889117 L8.75256674,9.1889117 C8.37782341,9.1889117 8.06468172,9.49691992 8.06468172,9.87679671 C8.06468172,10.25154 8.37268994,10.5646817 8.75256674,10.5646817 L15.2002053,10.5646817 C15.5749487,10.5646817 15.8880903,10.2566735 15.8880903,9.87679671 C15.8829569,9.49691992 15.5749487,9.1889117 15.2002053,9.1889117 Z" id="Path"></path>
            <path d="M17.3511294,20.610883 C17.3511294,21.4579055 16.6632444,22.1457906 15.8162218,22.1457906 L2.91067762,22.1457906 C2.06365503,22.1457906 1.37577002,21.4579055 1.37577002,20.610883 L1.37577002,2.90041068 C1.37577002,2.05338809 2.06365503,1.36550308 2.91067762,1.36550308 L12.0071869,1.36550308 L12.0071869,3.59342916 C12.0071869,5.20020534 13.3110883,6.50410678 14.9178645,6.50410678 L17.3511294,6.50410678 L17.3511294,10.2156057 C17.3716632,10.1848049 17.3921971,10.1488706 17.4075975,10.1180698 C17.4435318,10.0616016 17.4845996,9.99486653 17.5308008,9.92299795 C17.9055441,9.30698152 18.5010267,8.31622177 18.6190965,8.12628337 C18.6498973,8.0698152 18.6858316,8.01848049 18.7217659,7.96201232 L18.7217659,6.08829569 C18.7217659,5.90862423 18.6858316,5.73408624 18.6190965,5.57494867 C18.5472279,5.41067762 18.449692,5.26694045 18.3213552,5.14373717 L13.3572895,0.369609856 C13.2340862,0.251540041 13.0903491,0.159137577 12.936345,0.0975359343 C12.7772074,0.0359342916 12.6129363,1.42108547e-14 12.4435318,1.42108547e-14 L2.91067762,1.42108547e-14 C1.30390144,1.60346297e-14 -5.25801624e-13,1.30390144 -5.25801624e-13,2.91067762 L-5.25801624e-13,20.6211499 C-5.25801624e-13,22.2279261 1.30390144,23.5318275 2.91067762,23.5318275 L15.8162218,23.5318275 C17.4229979,23.5318275 18.7268994,22.2279261 18.7268994,20.6211499 L18.7268994,17.2227926 C18.2854209,17.8182752 17.8285421,18.4086242 17.3562628,18.9835729 L17.3562628,20.610883 L17.3511294,20.610883 L17.3511294,20.610883 Z" id="Path"></path>
            <path d="M4.82546201,4.50718686 C4.20431211,4.74332649 3.82443532,5.17453799 3.7936345,5.85728953 C3.76796715,6.45790554 4.0862423,6.86344969 4.58418891,7.15092402 C4.89219713,7.33059548 5.23100616,7.43326489 5.55441478,7.57186858 C5.68275154,7.62320329 5.80082136,7.6899384 5.90862423,7.77207392 C6.22176591,8.02361396 6.17043121,8.44969199 5.80595483,8.61909651 C5.61088296,8.7063655 5.40041068,8.73203285 5.1899384,8.71149897 C4.8613963,8.67556468 4.54312115,8.59342916 4.24024641,8.44455852 C4.06570842,8.35728953 4.01437372,8.38295688 3.95790554,8.57289528 C3.91170431,8.73716632 3.86550308,8.90143737 3.82443532,9.06570842 C3.76796715,9.28644764 3.78850103,9.34291581 4.00410678,9.44045175 C4.2761807,9.5687885 4.56365503,9.63039014 4.85626283,9.67145791 C5.08726899,9.70225873 5.09240246,9.71252567 5.1026694,9.95379877 C5.10780287,10.0616016 5.10780287,10.1694045 5.11293634,10.2772074 C5.11806982,10.4158111 5.18480493,10.4928131 5.32340862,10.4928131 C5.4825462,10.4928131 5.64168378,10.4928131 5.80082136,10.4825462 C5.92915811,10.4774127 5.99589322,10.4055441 5.99589322,10.2720739 C5.99589322,10.1232033 6.00102669,9.97433265 5.99075975,9.83059548 C5.98049281,9.68172485 6.04722793,9.60472279 6.19096509,9.56365503 C6.52464066,9.4661191 6.80184805,9.28644764 7.0174538,9.01437372 C7.61293634,8.27002053 7.36652977,7.19199179 6.49897331,6.72997947 C6.22689938,6.5862423 5.93942505,6.47843943 5.65195072,6.36036961 C5.48767967,6.2936345 5.32854209,6.21663244 5.1899384,6.10882957 C4.91273101,5.89322382 4.95893224,5.53901437 5.27720739,5.39527721 C5.36447639,5.35420945 5.46201232,5.33880903 5.55954825,5.33367556 C5.92915811,5.30800821 6.28336756,5.36960986 6.62217659,5.52874743 C6.79158111,5.60574949 6.84804928,5.58008214 6.89938398,5.40554415 C6.95585216,5.22073922 7.00205339,5.03080082 7.05338809,4.84599589 C7.08932238,4.72279261 7.04312115,4.64065708 6.92505133,4.58932238 C6.70944559,4.49691992 6.4835729,4.4301848 6.25256674,4.39938398 C5.94969199,4.35831622 5.94969199,4.35318275 5.94455852,4.05030801 C5.93429158,3.61909651 5.93429158,3.61909651 5.50821355,3.62422998 C5.44661191,3.62422998 5.38501027,3.62422998 5.31827515,3.62936345 C5.11806982,3.63963039 5.08213552,3.67556468 5.08213552,3.87577002 C5.08213552,3.96817248 5.08213552,4.05544148 5.08726899,4.14784394 C5.08213552,4.41478439 5.08213552,4.40965092 4.82546201,4.50718686 Z" id="Path"></path>
            <path d="M14.5431211,15.4158111 C14.661191,15.1694045 14.7843943,14.9229979 14.9075975,14.6765914 L3.58829569,14.6765914 C3.21355236,14.6765914 2.90041068,14.9845996 2.90041068,15.3644764 C2.90041068,15.7392197 3.20841889,16.0523614 3.58829569,16.0523614 L14.2453799,16.0523614 C14.3377823,15.8418891 14.4404517,15.6314168 14.5431211,15.4158111 Z" id="Path"></path>
            <path d="M2.90041068,18.100616 L2.90041068,18.100616 C2.90041068,18.4753593 3.20841889,18.788501 3.58829569,18.788501 L13.1468172,18.788501 C13.2956879,18.3264887 13.4599589,17.8747433 13.6447639,17.4178645 L3.58829569,17.4178645 C3.20841889,17.4178645 2.90041068,17.7258727 2.90041068,18.100616 Z" id="Path"></path>
            <path d="M24.7125257,7.84394251 L24.7125257,7.84394251 L24.3223819,7.61806982 L23.6909651,7.25359343 C23.7936345,7.0174538 23.886037,6.7761807 23.9579055,6.52977413 C23.9784394,6.4476386 24.0041068,6.37063655 24.0195072,6.28850103 C24.1324435,5.72895277 23.9373717,5.34394251 23.3778234,5.01026694 C22.8952772,4.72279261 22.5154004,4.75359343 22.0790554,5.11293634 C21.7813142,5.35934292 21.5400411,5.65708419 21.3141684,5.9650924 C20.4928131,7.08418891 19.7946612,8.28542094 19.0657084,9.46098563 L18.1827515,10.9291581 L18.1827515,10.9291581 C17.2279261,12.5462012 16.3295688,14.1940452 15.513347,15.8880903 C14.9743326,17.0020534 14.4661191,18.1314168 14.1067762,19.3223819 C14.0708419,19.486653 14.0246407,19.6560575 14.0092402,19.825462 C13.9887064,20.0205339 13.9168378,20.261807 14.1273101,20.3850103 C14.3326489,20.5030801 14.5123203,20.338809 14.6765914,20.2207392 C15.1180698,19.9024641 15.4876797,19.5071869 15.8418891,19.1016427 C17.5718686,17.1252567 19.0451745,14.9691992 20.4620123,12.761807 L20.4620123,12.761807 L21.5759754,10.9753593 C22.0533881,10.1591376 22.5513347,9.35831622 23.023614,8.54209446 C23.110883,8.38809035 23.2032854,8.22895277 23.2905544,8.07494867 L23.87577,8.4137577 L21.0215606,13.3264887 C20.8059548,13.701232 20.9958932,14.1991786 21.4579055,14.3069815 C21.4989733,14.3172485 21.5451745,14.2967146 21.5657084,14.2607803 L24.8973306,8.52156057 C25.0256674,8.28028747 24.9486653,7.9825462 24.7125257,7.84394251 Z" id="Path"></path>
        </g>
    </g>
</svg>